project_1/project_1.sim/sim_1/behav/xsim/up_counter_tb.vcd
$date
   Tue Dec 10 22:01:00 2024
$end

$version
  2024.2.0
  $dumpfile ("up_counter_tb.vcd") 
$end

$timescale
  1ps
$end

$scope module up_counter_tb $end
$var reg 1 ! clk $end
$var wire 2 " state [1:0] $end
$scope module uut $end
$var wire 1 # clk $end
$var reg 2 $ state [1:0] $end
$upscope $end
$upscope $end
$enddefinitions $end

#0
$dumpvars
0!
bx "
0#
bx $
$end

#2000
1!
b0 "
1#
b0 $

#4000
0!
0#

#6000
1!
b1 "
1#
b1 $

#8000
0!
0#

#10000
1!
b10 "
1#
b10 $

#12000
0!
0#

#14000
1!
b11 "
1#
b11 $

#16000
0!
0#

#18000
1!
b0 "
1#
b0 $

#20000
0!
0#

#22000
1!
b1 "
1#
b1 $

#24000
0!
0#

#26000
1!
b10 "
1#
b10 $

#28000
0!
0#

#30000
1!
b11 "
1#
b11 $

#32000
0!
0#

#34000
1!
b0 "
1#
b0 $

#36000
0!
0#

#38000
1!
b1 "
1#
b1 $

#40000
0!
0#

#42000
1!
b10 "
1#
b10 $

#44000
0!
0#

#46000
1!
b11 "
1#
b11 $

